Data Science with R For Envrionmental Modeling – data-wrgaling-dplyr
…
Spread

dplyr::spread() is equivalent to tidyr::pivot_wider():

Code

df.corn %>% 
  dplyr::select (STATE_FIPS, YEAR, STATE_NAME, MT) %>%
  tidyr::spread(YEAR, MT) 

# A tibble: 48 × 13
   STATE…¹ STATE…² `2012`  `2013`  `2014`  `2015`  `2016` `2017`  `2018`  `2019`
     <dbl> <chr>    <dbl>   <dbl>   <dbl>   <dbl>   <dbl>  <dbl>   <dbl>   <dbl>
 1       1 Alabama 7.34e5  1.10e6  1.15e6  9.15e5  9.60e5 9.97e5  9.71e5  1.14e6
 2       4 Arizona 1.59e5  2.29e5  1.49e5  1.92e5  2.73e5 1.59e5  1.12e5  2.17e5
 3       5 Arkans… 3.14e6  4.11e6  2.52e6  2.05e6  3.24e6 2.77e6  2.97e6  3.27e6
 4       6 Califo… 8.23e5  8.73e5  3.98e5  2.39e5  4.70e5 3.39e5  2.86e5  2.56e5
 5       8 Colora… 3.41e6  3.26e6  3.75e6  3.43e6  4.07e6 4.72e6  3.93e6  4.06e6
 6       9 Connec… 2.05e4 NA      NA      NA      NA      2.32e4 NA      NA     
 7      10 Delawa… 6.10e5  7.34e5  8.53e5  8.00e5  7.08e5 8.21e5  6.11e5  7.36e5
 8      12 Florida 1.17e5  2.64e5  1.37e5  1.79e5  1.47e5 1.51e5  2.47e5  2.21e5
 9      13 Georgia 1.42e6  2.07e6  1.34e6  1.24e6  1.43e6 1.10e6  1.27e6  1.42e6
10      16 Idaho   6.69e5  5.29e5  4.06e5  3.68e5  4.78e5 5.93e5  6.76e5  7.81e5
# … with 38 more rows, 3 more variables: `2020` <dbl>, `2021` <dbl>,
#   `2022` <dbl>, and abbreviated variable names ¹​STATE_FIPS, ²​STATE_NAME
…
